Browse the BMF Data Dictionary — nccs_dictionary • nccsdata
…
pattern
Optional character string. If provided, filters the
dictionary to column names matching this pattern (case-insensitive
regular expression).

    Value

    A tibble with columns `column_name`, `description`, and `type`.

    Examples

# See all columns
nccs_dictionary()
#> # A tibble: 97 × 3
#>    column_name                 description                                 type 
#>    <chr>                       <chr>                                       <chr>
#>  1 accounting_period           Month when organizations accounting period… inte…
#>  2 activity_code               Three 3-digit activity codes concatenated … inte…
#>  3 activity_code_categories    Semicolon-separated activity categories     char…
#>  4 activity_code_definitions   Semicolon-separated descriptions of activi… char…
#>  5 affiliation_code            Code indicating relationship to parent org… inte…
#>  6 affiliation_code_definition Description of affiliation relationship     char…
#>  7 all_classifications_string  Semicolon-separated list of all classifica… char…
#>  8 asset_amount                Total assets in dollars (most recent retur… nume…
#>  9 asset_code                  Asset amount range code (0-9)               inte…
#> 10 asset_code_definition       Description of asset range (e.g. $100000 t… char…
#> # ℹ 87 more rows
…
